Lista 4
…
Crie um pipeline usando %>% que realize as seguintes operações utilizando o conjunto de dados chamado lakers:

Agrupe os dados pela coluna “team”.

Calcule a média dos valores na coluna “points” para cada grupo.

Renomeie a coluna resultante para “media_pontos_por_time”.

exercicio3 <- lakers %>%
  group_by(team) %>%
  summarise(media_pontos_por_time = mean(points))

exercicio3

# A tibble: 31 × 2
   team  media_pontos_por_time
   <chr>                 <dbl>
 1 ATL                   0.390
 2 BOS                   0.424
 3 CHA                   0.482
 4 CHI                   0.448
 5 CLE                   0.438
 6 DAL                   0.464
 7 DEN                   0.422
 8 DET                   0.441
 9 GSW                   0.490
10 HOU                   0.437
# ℹ 21 more rows

Exercício 4:

Utilize %<>% para atualizar o conjunto de dados da seguinte maneira:

Crie uma coluna “ln_media_pontos_por_time”, utilizando o logaritmos naturais de “media_pontos_por_time”.

exercicio4 <- exercicio3 %>%
  mutate(ln_media_pontos_por_time = log(media_pontos_por_time))

exercicio4

# A tibble: 31 × 3
   team  media_pontos_por_time ln_media_pontos_por_time
   <chr>                 <dbl>                    <dbl>
 1 ATL                   0.390                   -0.941
 2 BOS                   0.424                   -0.858
 3 CHA                   0.482                   -0.730
 4 CHI                   0.448                   -0.804
 5 CLE                   0.438                   -0.826
 6 DAL                   0.464                   -0.769
 7 DEN                   0.422                   -0.863
 8 DET                   0.441                   -0.819
 9 GSW                   0.490                   -0.714
10 HOU                   0.437                   -0.827
# ℹ 21 more rows
…
Exercício 7

No conjunto de dados dos Lakers, crie uma nova coluna chamada “mes” que contenha o mês de cada jogo. Em seguida, calcule a média do número de pontos que cada time marcou em cada mês ao longo de todos os anos.

exercicio7 <- q5 %>%
  mutate(mes = format(date, "%m")) %>%
  group_by(team, mes) %>%
  summarise(media_pontos = mean(points))

`summarise()` has grouped output by 'team'. You can override using the
`.groups` argument.

exercicio7

# A tibble: 87 × 3
# Groups:   team [31]
   team  mes   media_pontos
   <chr> <chr>        <dbl>
 1 ATL   02           0.381
 2 ATL   03           0.4  
 3 BOS   02           0.431
 4 BOS   12           0.415
 5 CHA   03           0.482
 6 CHI   03           0.472
 7 CHI   11           0.426
 8 CLE   01           0.444
 9 CLE   02           0.431
10 DAL   03           0.461
# ℹ 77 more rows
…
Crie uma data utilizando o dia, mes e ano, e outra o horário (hora e minuto).

# Crie uma coluna de data
q9 <- storms %>%
  select(name, year, month, day, hour) %>%
  unite(data, year, month, day, sep = "-") %>%
  mutate(hour = sprintf("%02d:00", hour))

q9

# A tibble: 19,066 × 3
   name  data      hour 
   <chr> <chr>     <chr>
 1 Amy   1975-6-27 00:00
 2 Amy   1975-6-27 06:00
 3 Amy   1975-6-27 12:00
 4 Amy   1975-6-27 18:00
 5 Amy   1975-6-28 00:00
 6 Amy   1975-6-28 06:00
 7 Amy   1975-6-28 12:00
 8 Amy   1975-6-28 18:00
 9 Amy   1975-6-29 00:00
10 Amy   1975-6-29 06:00
# ℹ 19,056 more rows
…
Calcule o número total de tempestades em cada ano, a média de tempestades por mês, e a média dos ventos e apresente os resultados em ordem decrescente de frequência.

q10 <- storms %>%
  group_by(year) %>%
  summarise(
    total_tempestades = n(),
    media_tempestades_por_mes = mean(n() / 12),
    media_ventos = mean(wind)
  ) %>%
  arrange(desc(total_tempestades))

q10

# A tibble: 47 × 4
    year total_tempestades media_tempestades_por_mes media_ventos
   <dbl>             <int>                     <dbl>        <dbl>
 1  2005               873                      72.8         51.1
 2  2020               863                      71.9         46.4
 3  1995               762                      63.5         54.0
 4  2010               663                      55.2         49.3
 5  2012               654                      54.5         47.5
 6  2017               610                      50.8         57.7
 7  2018               608                      50.7         48.4
 8  2004               604                      50.3         58.1
 9  2003               593                      49.4         50.6
10  2021               592                      49.3         49.7
# ℹ 37 more rows
…
Exercício 12:

Utilizando o conjunto de dados “storms”, calcule a média dos ventos (coluna “wind”) das tempestades para cada mês do ano.

q12 <- storms %>%
  group_by(name, year, month) %>%
  summarise(media_ventos = mean(wind))

`summarise()` has grouped output by 'name', 'year'. You can override using the
`.groups` argument.

q12

# A tibble: 792 × 4
# Groups:   name, year [639]
   name      year month media_ventos
   <chr>    <dbl> <dbl>        <dbl>
 1 AL011993  1993     5         25  
 2 AL011993  1993     6         30.6
 3 AL012000  2000     6         25  
 4 AL021992  1992     6         29  
 5 AL021994  1994     7         24.2
 6 AL021999  1999     7         28.8
 7 AL022000  2000     6         29.2
 8 AL022001  2001     7         25  
 9 AL022003  2003     6         30  
10 AL022006  2006     7         31.5
# ℹ 782 more rows
…
