Prova 01
…
[1] 191

As 8 caracterististicas mais marcantes dos chocolates são sweet, nutty, cocoa, roasty, creamy, earthy, sandy e fatty e juntas correspondem a 1663 descrições dos chocolates.

# Criar um novo dataframe com as características separadas em linhas
caracteristicas_chocolate <- chocolate %>%
  separate_rows(caracteristicas, sep = ",") %>%
  group_by(caracteristicas) %>%
  summarise(frequencia = n()) %>%
  arrange(desc(frequencia))

caracteristicas_chocolate

# A tibble: 1,202 × 2
   caracteristicas frequencia
   <chr>                <int>
 1 " cocoa"               206
 2 " sweet"               175
 3 " nutty"               173
 4 "creamy"               161
 5 " roasty"              160
 6 " earthy"              141
 7 "sandy"                139
 8 " sour"                122
 9 " floral"               91
10 "intense"               88
# ℹ 1,192 more rows
# Selecionar apenas as características desejadas
palavras_chave <- c("sweet", "nutty", "cocoa", "roasty", "creamy", "earthy", "sandy", "fatty")

# Criar uma expressão regular para corresponder a variações nas palavras-chave
padrao_regex <- paste0("\\b", paste(palavras_chave, collapse = "|"), "\\b", ignore.case = TRUE)

# Filtrar as características desejadas e somar as frequências
q2b <- caracteristicas_chocolate %>%
  filter(grepl(padrao_regex, caracteristicas))  %>%
  group_by(caracteristicas)

# Exibir a soma das frequências
print(q2b)

# A tibble: 120 × 2
# Groups:   caracteristicas [120]
   caracteristicas frequencia
   <chr>                <int>
 1 " cocoa"               206
 2 " sweet"               175
 3 " nutty"               173
 4 "creamy"               161
 5 " roasty"              160
 6 " earthy"              141
 7 "sandy"                139
 8 "sweet"                 85
 9 "nutty"                 83
10 "roasty"                52
# ℹ 110 more rows
…
Assinale todas as alternativas correta(s). a) Os 3 artista(s) com mais exposições no The Whitney classificados em ordem decrescente de exposições são: Edward Hopper, Georgia O’Keeffe e Stuart Davis.

q3a <- inner_join(art, art_moma,
                  by = "artist_unique_id") %>%
  group_by(artist_name) %>%
  summarise(sum_whitney_count_to_year = sum(whitney_count_to_year)) %>%
  arrange(desc(sum_whitney_count_to_year))

q3a

# A tibble: 413 × 2
   artist_name       sum_whitney_count_to_year
   <chr>                                 <int>
 1 Edward Hopper                           529
 2 Georgia O'Keeffe                        352
 3 Stuart Davis                            339
 4 Willem de Kooning                       333
 5 George Grosz                            332
 6 Ellsworth Kelly                         276
 7 Jacob Lawrence                          248
 8 Jasper Johns                            235
 9 Jackson Pollock                         203
10 Roy Lichtenstein                        200
# ℹ 403 more rows

Do total de artistas, 152 são Swiss, Mexican ou Japanese.

q3b <- inner_join(art, art_moma,
                  by = "artist_unique_id") %>%
  group_by(artist_nationality) %>%
  summarise(frequencia = n()) 

q3b

# A tibble: 52 × 2
   artist_nationality frequencia
   <chr>                   <int>
 1 American                  908
 2 Argentine                   1
 3 Armenian-American          10
 4 Australian                  7
 5 Austrian                   36
 6 Austrian-American           5
 7 Belgian                    30
 8 Brazilian                   1
 9 British                   317
10 Canadian                   14
# ℹ 42 more rows
…
[1] 152

Apenas 6 artista(s) com a nacionalidade Swiss tiveram entre 0 e 1 exposições no The Whitney.

q3c <- inner_join(art, art_moma,
                  by = "artist_unique_id") %>%
  group_by(artist_name, artist_nationality) %>%
  summarise(sum_whitney_count_to_year = sum(whitney_count_to_year))

`summarise()` has grouped output by 'artist_name'. You can override using the
`.groups` argument.

q3c

# A tibble: 413 × 3
# Groups:   artist_name [413]
   artist_name                artist_nationality sum_whitney_count_to_year
   <chr>                      <chr>                                  <int>
 1 A. R. Penck                German                                     0
 2 Aaron Douglas              American                                   0
 3 Aaron Siskind              American                                   0
 4 Adolph Gottlieb            American                                  46
 5 Adolphe William Bouguereau French                                     0
 6 Adélaïde Labille-Guiard    French                                     0
 7 Albert Bierstadt           German-American                            0
 8 Albert Pinkham Ryder       American                                   0
 9 Albert Renger-Patzsch      German                                     0
10 Albert Sands Southworth    American                                   0
# ℹ 403 more rows
…
