A Quarto Template Repo to Create Big Reports and Very Long Title Because Long Titles are Common - 4 4 Transformação de dados
…
Qual é o número total de espécies únicas presentes? Qual a frequência de indivíduos por espécie?

[1] 38

# A tibble: 38 × 2
   species   frequency
   <chr>         <int>
 1 Aleena            1
 2 Besalisk          1
 3 Cerean            1
 4 Chagrian          1
 5 Clawdite          1
 6 Droid             6
 7 Dug               1
 8 Ewok              1
 9 Geonosian         1
10 Gungan            3
# ℹ 28 more rows

Calcule a altura média de personagens masculinos e femininos.

# A tibble: 2 × 2
  gender    altura_media
  <chr>            <dbl>
1 feminine          166.
2 masculine         181.

Qual é a média de idade dos personagens de cada espécie para personagens masculinos?

# A tibble: 33 × 2
   species   media_idade
   <chr>           <dbl>
 1 Aleena          NaN  
 2 Besalisk        NaN  
 3 Cerean           92  
 4 Chagrian        NaN  
 5 Droid            53.3
 6 Dug             NaN  
 7 Ewok              8  
 8 Geonosian       NaN  
 9 Gungan           52  
10 Human            55.2
# ℹ 23 more rows
…
Qual horário acontecem menos acidentes?

# A tibble: 1,440 × 2
   hora      n
   <chr> <int>
 1 02:39   219
 2 01:56   220
 3 02:58   221
 4 03:04   221
 5 02:37   222
 6 02:43   227
 7 02:01   229
 8 02:32   229
 9 03:21   229
10 03:13   230
# ℹ 1,430 more rows

Qual a média, desvio padrão, mediana, Q1 e Q3 para a quantidade de indivíduos classificados como levemente feridos por mês/ano?

# A tibble: 163 × 9
   `mes/ano`     n media    Q1 mediana    Q3   min   max    sd
   <chr>     <int> <dbl> <int>   <int> <int> <int> <int> <dbl>
 1 2010/01    1880 0.809     0       1     1     0    41 1.42 
 2 2010/02    1676 0.816     0       1     1     0    30 1.29 
 3 2010/03    1844 0.741     0       1     1     0    26 1.12 
 4 2010/04    1842 0.840     0       1     1     0     7 1.00 
 5 2010/05    2044 0.776     0       1     1     0    19 1.04 
 6 2010/06    1777 0.757     0       1     1     0    12 0.992
 7 2010/07    1929 0.802     0       1     1     0    21 1.25 
 8 2010/08    1776 0.819     0       1     1     0    51 1.52 
 9 2010/09    2119 0.748     0       1     1     0     9 0.977
10 2010/10    2030 0.807     0       1     1     0    39 1.29 
# ℹ 153 more rows

Quantos acidentes com vítimas fatais aconteceram, por mês/ano, em mediana entre as 6:00am e 11:59am.

# A tibble: 159 × 2
   `mes/ano`     n
   <chr>     <int>
 1 2010/01     308
 2 2010/02     325
 3 2010/03     333
 4 2010/04     380
 5 2010/05     443
 6 2010/06     381
 7 2010/07     406
 8 2010/08     348
 9 2010/09     426
10 2010/10     417
# ℹ 149 more rows
…
A tabela airports, por sua vez, registra dados sobre cada aeroporto. Podemos identificar cada aeroporto pelo seu código de aeroporto de três letras, tornando o código FAA a chave primária.

# A tibble: 1,458 × 8
   faa   name                             lat    lon   alt    tz dst   tzone    
   <chr> <chr>                          <dbl>  <dbl> <dbl> <dbl> <chr> <chr>    
 1 04G   Lansdowne Airport               41.1  -80.6  1044    -5 A     America/…
 2 06A   Moton Field Municipal Airport   32.5  -85.7   264    -6 A     America/…
 3 06C   Schaumburg Regional             42.0  -88.1   801    -6 A     America/…
 4 06N   Randall Airport                 41.4  -74.4   523    -5 A     America/…
 5 09J   Jekyll Island Airport           31.1  -81.4    11    -5 A     America/…
 6 0A9   Elizabethton Municipal Airport  36.4  -82.2  1593    -5 A     America/…
 7 0G6   Williams County Airport         41.5  -84.5   730    -5 A     America/…
 8 0G7   Finger Lakes Regional Airport   42.9  -76.8   492    -5 A     America/…
 9 0P2   Shoestring Aviation Airfield    39.8  -76.6  1000    -5 U     America/…
10 0S9   Jefferson County Intl           48.1 -123.    108    -8 A     America/…
# ℹ 1,448 more rows

A tabela planes registra dados sobre cada aeronave. Podemos identificar uma aeronave pelo seu número de cauda (tailnum), tornando o número de cauda a chave primária.

# A tibble: 3,322 × 9
   tailnum  year type              manufacturer model engines seats speed engine
   <chr>   <int> <chr>             <chr>        <chr>   <int> <int> <int> <chr> 
 1 N10156   2004 Fixed wing multi… EMBRAER      EMB-…       2    55    NA Turbo…
 2 N102UW   1998 Fixed wing multi… AIRBUS INDU… A320…       2   182    NA Turbo…
 3 N103US   1999 Fixed wing multi… AIRBUS INDU… A320…       2   182    NA Turbo…
 4 N104UW   1999 Fixed wing multi… AIRBUS INDU… A320…       2   182    NA Turbo…
 5 N10575   2002 Fixed wing multi… EMBRAER      EMB-…       2    55    NA Turbo…
 6 N105UW   1999 Fixed wing multi… AIRBUS INDU… A320…       2   182    NA Turbo…
 7 N107US   1999 Fixed wing multi… AIRBUS INDU… A320…       2   182    NA Turbo…
 8 N108UW   1999 Fixed wing multi… AIRBUS INDU… A320…       2   182    NA Turbo…
 9 N109UW   1999 Fixed wing multi… AIRBUS INDU… A320…       2   182    NA Turbo…
10 N110UW   1999 Fixed wing multi… AIRBUS INDU… A320…       2   182    NA Turbo…
# ℹ 3,312 more rows

A tabela weather registra dados sobre o clima nos aeroportos de origem. Você pode identificar cada observação pela combinação de localização e horário, tornando a origem (origin) e o horário (time_hour) a chave primária composta.

# A tibble: 26,115 × 15
   origin  year month   day  hour  temp  dewp humid wind_dir wind_speed
   <chr>  <int> <int> <int> <int> <dbl> <dbl> <dbl>    <dbl>      <dbl>
 1 EWR     2013     1     1     1  39.0  26.1  59.4      270      10.4 
 2 EWR     2013     1     1     2  39.0  27.0  61.6      250       8.06
 3 EWR     2013     1     1     3  39.0  28.0  64.4      240      11.5 
 4 EWR     2013     1     1     4  39.9  28.0  62.2      250      12.7 
 5 EWR     2013     1     1     5  39.0  28.0  64.4      260      12.7 
 6 EWR     2013     1     1     6  37.9  28.0  67.2      240      11.5 
 7 EWR     2013     1     1     7  39.0  28.0  64.4      240      15.0 
 8 EWR     2013     1     1     8  39.9  28.0  62.2      250      10.4 
 9 EWR     2013     1     1     9  39.9  28.0  62.2      260      15.0 
10 EWR     2013     1     1    10  41    28.0  59.6      260      13.8 
# ℹ 26,105 more rows
# ℹ 5 more variables: wind_gust <dbl>, precip <dbl>, pressure <dbl>,
#   visib <dbl>, time_hour <dttm>
…
left_join;

right_join.

Junções de filtragem, que filtram observações de um quadro de dados com base em se elas correspondem ou não a uma observação em outro banco de dados.

semi_join();

anti_join().

4.6.4 4.6.4 Junções Mutacionais

Uma junção mutacional (mutating join) permite combinar variáveis de dois conjuntos de dados: primeiro, ele corresponde às observações através de suas chaves e, em seguida, copia as variáveis de um conjunto de dados para o outro. Assim como a função mutate(), as funções de join adicionam variáveis à direita, portanto, se o seu conjunto de dados tiver muitas variáveis, as novas variáveis não serão imediatamente visíveis. Para facilitar a compreensão dos exemplos a seguir, criaremos um conjunto de dados mais suscinto com apenas seis variáveis, e apenas com vôos com distância superior à 1000km:

# A tibble: 51,695 × 6
    year time_hour           origin dest  tailnum carrier
   <int> <dttm>              <chr>  <chr> <chr>   <chr>  
 1  2013 2013-01-01 06:00:00 JFK    LAX   N29129  UA     
 2  2013 2013-01-01 06:00:00 EWR    SFO   N53441  UA     
 3  2013 2013-01-01 06:00:00 EWR    LAS   N76515  UA     
 4  2013 2013-01-01 06:00:00 JFK    SFO   N532UA  UA     
 5  2013 2013-01-01 06:00:00 EWR    PHX   N807AW  US     
 6  2013 2013-01-01 06:00:00 JFK    PHX   N535UW  US     
 7  2013 2013-01-01 06:00:00 EWR    LAX   N33289  UA     
 8  2013 2013-01-01 06:00:00 EWR    SNA   N38727  UA     
 9  2013 2013-01-01 06:00:00 JFK    LAS   N558JB  B6     
10  2013 2013-01-01 07:00:00 JFK    SFO   N705TW  DL     
# ℹ 51,685 more rows
…
Joining with `by = join_by(carrier)`

Note que, por definição, a função buscou a chave primária como carrier. Nesse caso, como temos apenas uma chave, é viável fazermos isso. Contudo, é uma boa prática definirmos qual a chave que gostaríamos de combinar os bancos de dados.

# A tibble: 51,695 × 7
    year time_hour           origin dest  tailnum carrier name                 
   <int> <dttm>              <chr>  <chr> <chr>   <chr>   <chr>                
 1  2013 2013-01-01 06:00:00 JFK    LAX   N29129  UA      United Air Lines Inc.
 2  2013 2013-01-01 06:00:00 EWR    SFO   N53441  UA      United Air Lines Inc.
 3  2013 2013-01-01 06:00:00 EWR    LAS   N76515  UA      United Air Lines Inc.
 4  2013 2013-01-01 06:00:00 JFK    SFO   N532UA  UA      United Air Lines Inc.
 5  2013 2013-01-01 06:00:00 EWR    PHX   N807AW  US      US Airways Inc.      
 6  2013 2013-01-01 06:00:00 JFK    PHX   N535UW  US      US Airways Inc.      
 7  2013 2013-01-01 06:00:00 EWR    LAX   N33289  UA      United Air Lines Inc.
 8  2013 2013-01-01 06:00:00 EWR    SNA   N38727  UA      United Air Lines Inc.
 9  2013 2013-01-01 06:00:00 JFK    LAS   N558JB  B6      JetBlue Airways      
10  2013 2013-01-01 07:00:00 JFK    SFO   N705TW  DL      Delta Air Lines Inc. 
# ℹ 51,685 more rows
…
Descrição da Imagem

Suponha que, temos interesse em buscar informações acerca dos dos vôos realizados pelos aviões em flights2. Para isso, basta unirmos as tabelas planes com flights2.

# A tibble: 50,720 × 14
   year.x time_hour           origin dest  tailnum carrier year.y type          
    <int> <dttm>              <chr>  <chr> <chr>   <chr>    <int> <chr>         
 1   2013 2013-01-01 06:00:00 JFK    LAX   N29129  UA        1998 Fixed wing mu…
 2   2013 2013-01-01 06:00:00 EWR    SFO   N53441  UA          NA Fixed wing mu…
 3   2013 2013-01-01 06:00:00 EWR    LAS   N76515  UA        2008 Fixed wing mu…
 4   2013 2013-01-01 06:00:00 EWR    PHX   N807AW  US        1999 Fixed wing mu…
 5   2013 2013-01-01 06:00:00 JFK    PHX   N535UW  US        2009 Fixed wing mu…
 6   2013 2013-01-01 06:00:00 EWR    LAX   N33289  UA        2004 Fixed wing mu…
 7   2013 2013-01-01 06:00:00 EWR    SNA   N38727  UA        1999 Fixed wing mu…
 8   2013 2013-01-01 06:00:00 JFK    LAS   N558JB  B6        2003 Fixed wing mu…
 9   2013 2013-01-01 07:00:00 JFK    SFO   N705TW  DL        1997 Fixed wing mu…
10   2013 2013-01-01 07:00:00 JFK    LAX   N627VA  VX        2006 Fixed wing mu…
# ℹ 50,710 more rows
# ℹ 6 more variables: manufacturer <chr>, model <chr>, engines <int>,
#   seats <int>, speed <int>, engine <chr>
…
Descrição da Imagem

Suponha que, temos interesse em buscar informações acerca dos aeroportos de origem realizados pelos aviões em flights2. Porém, apenas temos interesse em informações que aparecem em ambos bancos. Para isso, basta unirmos as tabelas flights2 com airports.

# A tibble: 51,695 × 13
    year time_hour           origin dest  tailnum carrier name         lat   lon
   <int> <dttm>              <chr>  <chr> <chr>   <chr>   <chr>      <dbl> <dbl>
 1  2013 2013-01-01 06:00:00 JFK    LAX   N29129  UA      John F Ke…  40.6 -73.8
 2  2013 2013-01-01 06:00:00 EWR    SFO   N53441  UA      Newark Li…  40.7 -74.2
 3  2013 2013-01-01 06:00:00 EWR    LAS   N76515  UA      Newark Li…  40.7 -74.2
 4  2013 2013-01-01 06:00:00 JFK    SFO   N532UA  UA      John F Ke…  40.6 -73.8
 5  2013 2013-01-01 06:00:00 EWR    PHX   N807AW  US      Newark Li…  40.7 -74.2
 6  2013 2013-01-01 06:00:00 JFK    PHX   N535UW  US      John F Ke…  40.6 -73.8
 7  2013 2013-01-01 06:00:00 EWR    LAX   N33289  UA      Newark Li…  40.7 -74.2
 8  2013 2013-01-01 06:00:00 EWR    SNA   N38727  UA      Newark Li…  40.7 -74.2
 9  2013 2013-01-01 06:00:00 JFK    LAS   N558JB  B6      John F Ke…  40.6 -73.8
10  2013 2013-01-01 07:00:00 JFK    SFO   N705TW  DL      John F Ke…  40.6 -73.8
# ℹ 51,685 more rows
# ℹ 4 more variables: alt <dbl>, tz <dbl>, dst <chr>, tzone <chr>
…
Descrição da Imagem

Suponha que, temos interesse em buscar informações acerca dos aeroportos de destino realizados pelos aviões em flights2. Porém, apenas temos interesse em todas informações que aparecem em ambos bancos. Para isso, basta unirmos as tabelas flights2 com airports.

# A tibble: 53,137 × 13
    year time_hour           origin dest  tailnum carrier name         lat   lon
   <int> <dttm>              <chr>  <chr> <chr>   <chr>   <chr>      <dbl> <dbl>
 1  2013 2013-01-01 06:00:00 JFK    LAX   N29129  UA      Los Angel…  33.9 -118.
 2  2013 2013-01-01 06:00:00 EWR    SFO   N53441  UA      San Franc…  37.6 -122.
 3  2013 2013-01-01 06:00:00 EWR    LAS   N76515  UA      Mc Carran…  36.1 -115.
 4  2013 2013-01-01 06:00:00 JFK    SFO   N532UA  UA      San Franc…  37.6 -122.
 5  2013 2013-01-01 06:00:00 EWR    PHX   N807AW  US      Phoenix S…  33.4 -112.
 6  2013 2013-01-01 06:00:00 JFK    PHX   N535UW  US      Phoenix S…  33.4 -112.
 7  2013 2013-01-01 06:00:00 EWR    LAX   N33289  UA      Los Angel…  33.9 -118.
 8  2013 2013-01-01 06:00:00 EWR    SNA   N38727  UA      John Wayn…  33.7 -118.
 9  2013 2013-01-01 06:00:00 JFK    LAS   N558JB  B6      Mc Carran…  36.1 -115.
10  2013 2013-01-01 07:00:00 JFK    SFO   N705TW  DL      San Franc…  37.6 -122.
# ℹ 53,127 more rows
# ℹ 4 more variables: alt <dbl>, tz <dbl>, dst <chr>, tzone <chr>
…
Inclua uma coluna com a cia aérea na tabela planes. Quantas companhias áreas voaram cada avião naquele ano?

`summarise()` has grouped output by 'tailnum', 'carrier'. You can override
using the `.groups` argument.

[1] 336776

[1] 336776

# A tibble: 3,339 × 12
   tailnum  year type      manufacturer model engines seats speed engine carrier
   <chr>   <int> <chr>     <chr>        <chr>   <int> <int> <int> <chr>  <chr>  
 1 N10156   2004 Fixed wi… EMBRAER      EMB-…       2    55    NA Turbo… EV     
 2 N102UW   1998 Fixed wi… AIRBUS INDU… A320…       2   182    NA Turbo… US     
 3 N103US   1999 Fixed wi… AIRBUS INDU… A320…       2   182    NA Turbo… US     
 4 N104UW   1999 Fixed wi… AIRBUS INDU… A320…       2   182    NA Turbo… US     
 5 N10575   2002 Fixed wi… EMBRAER      EMB-…       2    55    NA Turbo… EV     
 6 N105UW   1999 Fixed wi… AIRBUS INDU… A320…       2   182    NA Turbo… US     
 7 N107US   1999 Fixed wi… AIRBUS INDU… A320…       2   182    NA Turbo… US     
 8 N108UW   1999 Fixed wi… AIRBUS INDU… A320…       2   182    NA Turbo… US     
 9 N109UW   1999 Fixed wi… AIRBUS INDU… A320…       2   182    NA Turbo… US     
10 N110UW   1999 Fixed wi… AIRBUS INDU… A320…       2   182    NA Turbo… US     
# ℹ 3,329 more rows
# ℹ 2 more variables: name <chr>, total_voos <int>

Inclua a latitude e longitude de cada origem destino na tabela flights.

# A tibble: 336,776 × 6
   origin dest  origin_lat origin_lon dest_lat dest_lon
   <chr>  <chr>      <dbl>      <dbl>    <dbl>    <dbl>
 1 EWR    IAH         40.7      -74.2     30.0    -95.3
 2 LGA    IAH         40.8      -73.9     30.0    -95.3
 3 JFK    MIA         40.6      -73.8     25.8    -80.3
 4 JFK    BQN         40.6      -73.8     NA       NA  
 5 LGA    ATL         40.8      -73.9     33.6    -84.4
 6 EWR    ORD         40.7      -74.2     42.0    -87.9
 7 EWR    FLL         40.7      -74.2     26.1    -80.2
 8 LGA    IAD         40.8      -73.9     38.9    -77.5
 9 JFK    MCO         40.6      -73.8     28.4    -81.3
10 LGA    ORD         40.8      -73.9     42.0    -87.9
# ℹ 336,766 more rows
…
O ponto de partida mais eficaz geralmente é reunir as colunas que não são consideradas variáveis. Vamos examinar o que temos:

Country (país), iso2 e iso3: Essas três colunas parecem redundantes e especificam o país de formas diferentes. Variável redundante.

Year (ano): É claramente uma variável que representa o ano em que os dados foram registrados.

Outras Colunas Não Identificadas: As colunas restantes, como “new_sp_m014”, “new_ep_m014” e “new_ep_f014”, não sabemos o que representam ainda. De acordo com a estrutura dos nomes das colunas, elas provavelmente contêm valores, não são variáveis.

Portanto, nossa primeira tarefa é agrupar todas as colunas, desde “new_sp_m014” até “newrel_f65”, porque ainda não compreendemos completamente o que essas colunas representam. Chamaremos essa variável genérica de “chave”. Além disso, sabemos que as células dessas colunas representam a contagem de casos, então criaremos uma variável chamada “casos” para armazenar esses valores.

É importante observar que há muitos valores ausentes nos dados atuais. Para facilitar a análise inicial, usaremos a função “values_drop_na” para nos concentrarmos apenas nos valores que estão presentes, deixando os valores ausentes de lado temporariamente.

Dessa forma, estaremos prontos para começar o processo de organização e limpeza desses dados desorganizados.

# A tibble: 97,867 × 6
   country     iso2  iso3   year chave        casos
   <chr>       <chr> <chr> <int> <chr>        <int>
 1 Afghanistan AF    AFG    1997 new_sp_m014      0
 2 Afghanistan AF    AFG    1997 new_sp_m1524    10
 3 Afghanistan AF    AFG    1997 new_sp_m2534     6
 4 Afghanistan AF    AFG    1997 new_sp_m3544     3
 5 Afghanistan AF    AFG    1997 new_sp_m4554     5
 6 Afghanistan AF    AFG    1997 new_sp_m5564     2
 7 Afghanistan AF    AFG    1997 new_sp_m65       0
 8 Afghanistan AF    AFG    1997 new_sp_f014      5
 9 Afghanistan AF    AFG    1997 new_sp_f1524    38
10 Afghanistan AF    AFG    1997 new_sp_f2534    36
# ℹ 97,857 more rows

Para tentarmos entender a estrutura de chave, vamos contar ela.

# A tibble: 56 × 2
   chave            n
   <chr>        <int>
 1 new_ep_f014   1029
 2 new_ep_f1524  1018
 3 new_ep_f2534  1018
 4 new_ep_f3544  1018
 5 new_ep_f4554  1014
 6 new_ep_f5564  1014
 7 new_ep_f65    1011
 8 new_ep_m014   1035
 9 new_ep_m1524  1023
10 new_ep_m2534  1017
# ℹ 46 more rows
…
“1524” = 15 a 24 anos

“2534” = 25 a 34 anos

“3544” = 35 a 44 anos

“4554” = 45 a 54 anos

“5564” = 55 a 64 anos

“65” = 65 anos ou mais

Para tornar o formato dos nomes das colunas mais consistente, é necessário fazer um pequeno ajuste: infelizmente, os nomes estão ligeiramente inconsistentes, pois em vez de “new_rel”, temos “newrel”. Para isso, vamos utilizar a função str_replace(), a ideia básica é simples: substituir os caracteres “newrel” por “new_rel”. Isso tornará todos os nomes das variáveis consistentes.

# A tibble: 97,867 × 6
   country     iso2  iso3   year chave        casos
   <chr>       <chr> <chr> <int> <chr>        <int>
 1 Afghanistan AF    AFG    1997 new_sp_m014      0
 2 Afghanistan AF    AFG    1997 new_sp_m1524    10
 3 Afghanistan AF    AFG    1997 new_sp_m2534     6
 4 Afghanistan AF    AFG    1997 new_sp_m3544     3
 5 Afghanistan AF    AFG    1997 new_sp_m4554     5
 6 Afghanistan AF    AFG    1997 new_sp_m5564     2
 7 Afghanistan AF    AFG    1997 new_sp_m65       0
 8 Afghanistan AF    AFG    1997 new_sp_f014      5
 9 Afghanistan AF    AFG    1997 new_sp_f1524    38
10 Afghanistan AF    AFG    1997 new_sp_f2534    36
# ℹ 97,857 more rows

Podemos separar os valores em cada código usando duas etapas da função separate(). A primeira etapa dividirá os códigos em cada sublinhado (underscore).

# A tibble: 97,867 × 8
   country     iso2  iso3   year new   type  sexage casos
   <chr>       <chr> <chr> <int> <chr> <chr> <chr>  <int>
 1 Afghanistan AF    AFG    1997 new   sp    m014       0
 2 Afghanistan AF    AFG    1997 new   sp    m1524     10
 3 Afghanistan AF    AFG    1997 new   sp    m2534      6
 4 Afghanistan AF    AFG    1997 new   sp    m3544      3
 5 Afghanistan AF    AFG    1997 new   sp    m4554      5
 6 Afghanistan AF    AFG    1997 new   sp    m5564      2
 7 Afghanistan AF    AFG    1997 new   sp    m65        0
 8 Afghanistan AF    AFG    1997 new   sp    f014       5
 9 Afghanistan AF    AFG    1997 new   sp    f1524     38
10 Afghanistan AF    AFG    1997 new   sp    f2534     36
# ℹ 97,857 more rows
…
