Aula 09
…
airports

# A tibble: 1,458 × 8
   faa   name                             lat    lon   alt    tz dst   tzone    
   <chr> <chr>                          <dbl>  <dbl> <dbl> <dbl> <chr> <chr>    
 1 04G   Lansdowne Airport               41.1  -80.6  1044    -5 A     America/…
 2 06A   Moton Field Municipal Airport   32.5  -85.7   264    -6 A     America/…
 3 06C   Schaumburg Regional             42.0  -88.1   801    -6 A     America/…
 4 06N   Randall Airport                 41.4  -74.4   523    -5 A     America/…
 5 09J   Jekyll Island Airport           31.1  -81.4    11    -5 A     America/…
 6 0A9   Elizabethton Municipal Airport  36.4  -82.2  1593    -5 A     America/…
 7 0G6   Williams County Airport         41.5  -84.5   730    -5 A     America/…
 8 0G7   Finger Lakes Regional Airport   42.9  -76.8   492    -5 A     America/…
 9 0P2   Shoestring Aviation Airfield    39.8  -76.6  1000    -5 U     America/…
10 0S9   Jefferson County Intl           48.1 -123.    108    -8 A     America/…
# ℹ 1,448 more rows
…
full_join

left_join

right_join

em Excel -> vlookup / procv

flights2 <- flights %>% 
  filter(distance > 2000) %>% 
  select(year, time_hour, origin, dest, tailnum, carrier)

flights2

# A tibble: 51,695 × 6
    year time_hour           origin dest  tailnum carrier
   <int> <dttm>              <chr>  <chr> <chr>   <chr>  
 1  2013 2013-01-01 06:00:00 JFK    LAX   N29129  UA     
 2  2013 2013-01-01 06:00:00 EWR    SFO   N53441  UA     
 3  2013 2013-01-01 06:00:00 EWR    LAS   N76515  UA     
 4  2013 2013-01-01 06:00:00 JFK    SFO   N532UA  UA     
 5  2013 2013-01-01 06:00:00 EWR    PHX   N807AW  US     
 6  2013 2013-01-01 06:00:00 JFK    PHX   N535UW  US     
 7  2013 2013-01-01 06:00:00 EWR    LAX   N33289  UA     
 8  2013 2013-01-01 06:00:00 EWR    SNA   N38727  UA     
 9  2013 2013-01-01 06:00:00 JFK    LAS   N558JB  B6     
10  2013 2013-01-01 07:00:00 JFK    SFO   N705TW  DL     
# ℹ 51,685 more rows

Left Join

flights2 %>% 
  left_join(., airlines)

Joining with `by = join_by(carrier)`

# A tibble: 51,695 × 7
    year time_hour           origin dest  tailnum carrier name                 
   <int> <dttm>              <chr>  <chr> <chr>   <chr>   <chr>                
 1  2013 2013-01-01 06:00:00 JFK    LAX   N29129  UA      United Air Lines Inc.
 2  2013 2013-01-01 06:00:00 EWR    SFO   N53441  UA      United Air Lines Inc.
 3  2013 2013-01-01 06:00:00 EWR    LAS   N76515  UA      United Air Lines Inc.
 4  2013 2013-01-01 06:00:00 JFK    SFO   N532UA  UA      United Air Lines Inc.
 5  2013 2013-01-01 06:00:00 EWR    PHX   N807AW  US      US Airways Inc.      
 6  2013 2013-01-01 06:00:00 JFK    PHX   N535UW  US      US Airways Inc.      
 7  2013 2013-01-01 06:00:00 EWR    LAX   N33289  UA      United Air Lines Inc.
 8  2013 2013-01-01 06:00:00 EWR    SNA   N38727  UA      United Air Lines Inc.
 9  2013 2013-01-01 06:00:00 JFK    LAS   N558JB  B6      JetBlue Airways      
10  2013 2013-01-01 07:00:00 JFK    SFO   N705TW  DL      Delta Air Lines Inc. 
# ℹ 51,685 more rows

flights2 %>% 
  left_join(airlines)

Joining with `by = join_by(carrier)`

# A tibble: 51,695 × 7
    year time_hour           origin dest  tailnum carrier name                 
   <int> <dttm>              <chr>  <chr> <chr>   <chr>   <chr>                
 1  2013 2013-01-01 06:00:00 JFK    LAX   N29129  UA      United Air Lines Inc.
 2  2013 2013-01-01 06:00:00 EWR    SFO   N53441  UA      United Air Lines Inc.
 3  2013 2013-01-01 06:00:00 EWR    LAS   N76515  UA      United Air Lines Inc.
 4  2013 2013-01-01 06:00:00 JFK    SFO   N532UA  UA      United Air Lines Inc.
 5  2013 2013-01-01 06:00:00 EWR    PHX   N807AW  US      US Airways Inc.      
 6  2013 2013-01-01 06:00:00 JFK    PHX   N535UW  US      US Airways Inc.      
 7  2013 2013-01-01 06:00:00 EWR    LAX   N33289  UA      United Air Lines Inc.
 8  2013 2013-01-01 06:00:00 EWR    SNA   N38727  UA      United Air Lines Inc.
 9  2013 2013-01-01 06:00:00 JFK    LAS   N558JB  B6      JetBlue Airways      
10  2013 2013-01-01 07:00:00 JFK    SFO   N705TW  DL      Delta Air Lines Inc. 
# ℹ 51,685 more rows

left_join(flights2, airlines)

Joining with `by = join_by(carrier)`

# A tibble: 51,695 × 7
    year time_hour           origin dest  tailnum carrier name                 
   <int> <dttm>              <chr>  <chr> <chr>   <chr>   <chr>                
 1  2013 2013-01-01 06:00:00 JFK    LAX   N29129  UA      United Air Lines Inc.
 2  2013 2013-01-01 06:00:00 EWR    SFO   N53441  UA      United Air Lines Inc.
 3  2013 2013-01-01 06:00:00 EWR    LAS   N76515  UA      United Air Lines Inc.
 4  2013 2013-01-01 06:00:00 JFK    SFO   N532UA  UA      United Air Lines Inc.
 5  2013 2013-01-01 06:00:00 EWR    PHX   N807AW  US      US Airways Inc.      
 6  2013 2013-01-01 06:00:00 JFK    PHX   N535UW  US      US Airways Inc.      
 7  2013 2013-01-01 06:00:00 EWR    LAX   N33289  UA      United Air Lines Inc.
 8  2013 2013-01-01 06:00:00 EWR    SNA   N38727  UA      United Air Lines Inc.
 9  2013 2013-01-01 06:00:00 JFK    LAS   N558JB  B6      JetBlue Airways      
10  2013 2013-01-01 07:00:00 JFK    SFO   N705TW  DL      Delta Air Lines Inc. 
# ℹ 51,685 more rows

flights2 %>% 
  left_join(airlines, 
            by = "carrier")

# A tibble: 51,695 × 7
    year time_hour           origin dest  tailnum carrier name                 
   <int> <dttm>              <chr>  <chr> <chr>   <chr>   <chr>                
 1  2013 2013-01-01 06:00:00 JFK    LAX   N29129  UA      United Air Lines Inc.
 2  2013 2013-01-01 06:00:00 EWR    SFO   N53441  UA      United Air Lines Inc.
 3  2013 2013-01-01 06:00:00 EWR    LAS   N76515  UA      United Air Lines Inc.
 4  2013 2013-01-01 06:00:00 JFK    SFO   N532UA  UA      United Air Lines Inc.
 5  2013 2013-01-01 06:00:00 EWR    PHX   N807AW  US      US Airways Inc.      
 6  2013 2013-01-01 06:00:00 JFK    PHX   N535UW  US      US Airways Inc.      
 7  2013 2013-01-01 06:00:00 EWR    LAX   N33289  UA      United Air Lines Inc.
 8  2013 2013-01-01 06:00:00 EWR    SNA   N38727  UA      United Air Lines Inc.
 9  2013 2013-01-01 06:00:00 JFK    LAS   N558JB  B6      JetBlue Airways      
10  2013 2013-01-01 07:00:00 JFK    SFO   N705TW  DL      Delta Air Lines Inc. 
# ℹ 51,685 more rows

flights2 %>% 
  left_join(airlines, 
            by = c("carrier"="carrier"))

# A tibble: 51,695 × 7
    year time_hour           origin dest  tailnum carrier name                 
   <int> <dttm>              <chr>  <chr> <chr>   <chr>   <chr>                
 1  2013 2013-01-01 06:00:00 JFK    LAX   N29129  UA      United Air Lines Inc.
 2  2013 2013-01-01 06:00:00 EWR    SFO   N53441  UA      United Air Lines Inc.
 3  2013 2013-01-01 06:00:00 EWR    LAS   N76515  UA      United Air Lines Inc.
 4  2013 2013-01-01 06:00:00 JFK    SFO   N532UA  UA      United Air Lines Inc.
 5  2013 2013-01-01 06:00:00 EWR    PHX   N807AW  US      US Airways Inc.      
 6  2013 2013-01-01 06:00:00 JFK    PHX   N535UW  US      US Airways Inc.      
 7  2013 2013-01-01 06:00:00 EWR    LAX   N33289  UA      United Air Lines Inc.
 8  2013 2013-01-01 06:00:00 EWR    SNA   N38727  UA      United Air Lines Inc.
 9  2013 2013-01-01 06:00:00 JFK    LAS   N558JB  B6      JetBlue Airways      
10  2013 2013-01-01 07:00:00 JFK    SFO   N705TW  DL      Delta Air Lines Inc. 
# ℹ 51,685 more rows

flights2 %>% 
  left_join(airlines, 
            join_by(carrier))

# A tibble: 51,695 × 7
    year time_hour           origin dest  tailnum carrier name                 
   <int> <dttm>              <chr>  <chr> <chr>   <chr>   <chr>                
 1  2013 2013-01-01 06:00:00 JFK    LAX   N29129  UA      United Air Lines Inc.
 2  2013 2013-01-01 06:00:00 EWR    SFO   N53441  UA      United Air Lines Inc.
 3  2013 2013-01-01 06:00:00 EWR    LAS   N76515  UA      United Air Lines Inc.
 4  2013 2013-01-01 06:00:00 JFK    SFO   N532UA  UA      United Air Lines Inc.
 5  2013 2013-01-01 06:00:00 EWR    PHX   N807AW  US      US Airways Inc.      
 6  2013 2013-01-01 06:00:00 JFK    PHX   N535UW  US      US Airways Inc.      
 7  2013 2013-01-01 06:00:00 EWR    LAX   N33289  UA      United Air Lines Inc.
 8  2013 2013-01-01 06:00:00 EWR    SNA   N38727  UA      United Air Lines Inc.
 9  2013 2013-01-01 06:00:00 JFK    LAS   N558JB  B6      JetBlue Airways      
10  2013 2013-01-01 07:00:00 JFK    SFO   N705TW  DL      Delta Air Lines Inc. 
# ℹ 51,685 more rows
…
Semi-Join

airports %>% 
  semi_join(flights2, join_by(faa == origin))

# A tibble: 2 × 8
  faa   name                  lat   lon   alt    tz dst   tzone           
  <chr> <chr>               <dbl> <dbl> <dbl> <dbl> <chr> <chr>           
1 EWR   Newark Liberty Intl  40.7 -74.2    18    -5 A     America/New_York
2 JFK   John F Kennedy Intl  40.6 -73.8    13    -5 A     America/New_York

airports %>% 
  inner_join(flights2, join_by(faa == origin))

# A tibble: 51,695 × 13
   faa   name        lat   lon   alt    tz dst   tzone  year time_hour          
   <chr> <chr>     <dbl> <dbl> <dbl> <dbl> <chr> <chr> <int> <dttm>             
 1 EWR   Newark L…  40.7 -74.2    18    -5 A     Amer…  2013 2013-01-01 06:00:00
 2 EWR   Newark L…  40.7 -74.2    18    -5 A     Amer…  2013 2013-01-01 06:00:00
 3 EWR   Newark L…  40.7 -74.2    18    -5 A     Amer…  2013 2013-01-01 06:00:00
 4 EWR   Newark L…  40.7 -74.2    18    -5 A     Amer…  2013 2013-01-01 06:00:00
 5 EWR   Newark L…  40.7 -74.2    18    -5 A     Amer…  2013 2013-01-01 06:00:00
 6 EWR   Newark L…  40.7 -74.2    18    -5 A     Amer…  2013 2013-01-01 07:00:00
 7 EWR   Newark L…  40.7 -74.2    18    -5 A     Amer…  2013 2013-01-01 07:00:00
 8 EWR   Newark L…  40.7 -74.2    18    -5 A     Amer…  2013 2013-01-01 08:00:00
 9 EWR   Newark L…  40.7 -74.2    18    -5 A     Amer…  2013 2013-01-01 08:00:00
10 EWR   Newark L…  40.7 -74.2    18    -5 A     Amer…  2013 2013-01-01 08:00:00
# ℹ 51,685 more rows
# ℹ 3 more variables: dest <chr>, tailnum <chr>, carrier <chr>
…
