Aula 08
…
Error in `filter()`:
ℹ In argument: `tipo_de_ocorrencia %in% c("com vítima", "sem vítima")`.
Caused by error in `tipo_de_ocorrencia %in% c("com vítima", "sem vítima")`:
! objeto 'tipo_de_ocorrencia' não encontrado

Exercícios

Utilizando o banco de dados starwars faça o que se pede: 1. Qual é o número total de espécies únicas presentes? Qual a frequência de indivíduos por espécie?

starwars %>% 
  group_by(species) %>% 
  summarise(n = n()) %>% 
  arrange(desc(n))

# A tibble: 38 × 2
   species      n
   <chr>    <int>
 1 Human       35
 2 Droid        6
 3 <NA>         4
 4 Gungan       3
 5 Kaminoan     2
 6 Mirialan     2
 7 Twi'lek      2
 8 Wookiee      2
 9 Zabrak       2
10 Aleena       1
# ℹ 28 more rows
…
